{
  "type": "service_account",
  "project_id": "cht-iot-b0dd1",
  "private_key_id": "25cb4bba56b2911b9d4a3452cf82ee055d12325f",
  "private_key": "-----BEGIN PRIVATE KEY-----\nMIIEvAIBADANBgkqhkiG9w0BAQEFAASCBKYwggSiAgEAAoIBAQCyce9JhMsX0tFh\nb4wg0idDtHlMWdg4iB1sOb+uICJzN4GzQvWWH+HnMFET2ueYnteW2B3f0yVvNnin\nZig9JE8sN+rB476PcRTq/XY/xt9z/0Am9f+2tIkQBATkxnZVyGqfteWvlQvZ+Dlc\ncPYpvMwhoshkUs2NhnvBeFm1T/TD9WcDpLwdpBecU5BkWhmaHG+U7NVC0YWxNi2W\nhI4Y6z4Gz2V6e0BBot/mYE2h/uIAVLXtJcW3d1tlCbwixfT2NSATCObGocdr7JFS\ni9aaLV2I4f1+01jr2MPiEuX8+f0EZTpeBYqRPBLAjClclwSko7SMgx7/cgcowyMd\nHBxR+9oxAgMBAAECggEADhDpGdR75d7aXmHam+O08KNTRG94mcww9Yz/zQv/azGe\n6bCHh1PwDLdETNpekytCN0PF5xTPyJp0nE1zMo6gJw4pVStMpCX3ziY4ogJdLtma\nBvgxNge5HigS8q2qOkzYCsrd1h9blcz5SI4m+VdGiAg6352fUl6ddryz5ZTt6FxX\nxSI2P7F2St4PIAjaIIc5ViS5TURSVfj5O/TdQzTg5S0GBybXdxF5pp3HI+A1XSaK\nrHZFAe/8iLn3ABSoiC/sp4i+IMYZrhncaE//luTIOIo9rGww7tXC8vUAbSoREiXk\nlfeGNq0GeL5wtUDZ+KKyo9pYdKMEP68vEblBFpqGeQKBgQD1IqNy9eSnepmQbiGT\n0NbRPf1+hLTICkI+YxYsyd3urIRzbG4Xu8F1S83pjfQSOssiU/4KapRPknzeq2Z0\n5GHD7BqvUGN8f2Z3WCnIXYej2EOesm5kBUXZTogZU4M7NRms2v9+h4VY51MOQYE/\n0oEUVMSzBXkrprd1kux+QDBD5wKBgQC6Wp0Eeh9HFYTHRDidG5CmsjY6y1AACn47\nRV14mJWUoKohUkt3t0ojvGWBoU4+aN/o4cF6E3QFJZRP1iOCNUjDWhnXcty/EgKO\n0dO9OF4Dj2TgTT5V+inFkqcThF9bBcHzzMF0SpGzhFcQasp75tDld9GiPWSLsKe8\n9LZ3IGIuJwKBgCPUU0WbUTd1gPqOTlQXoz5kLCgQ54eRkEskGnqjas/W4WkpgRHw\n/H7TfJ5VhEYh180Fr8z/9PuIcr3tGYWeV/fWC7RyMIhi6qwo87p4iTnWg1OvytjN\nuH7hrpzdCwJdaYpNXCi3UDNFZGtiAa09bGZ3WWS9OQ+7R3dk6TIu2Z8jAoGAQhDR\nzb6FzCui0Qosj/YvyAkyFJHzoLAXpGepBZICpZh3+Cw2uRBv5k9qJRTMqm9/wg4X\nC3JOFW0HMW6XVBgT3b3Zn3oHLG30HjHhQRn0qopxltuLl+uCV5rwRIkPTTOzWP1k\nMBgno17thtJ1Sou/zzo1RbFCLgvIy8Jt1bnTVM0CgYAbHE8ZnSWCfSSyy7ty7vIA\nO7xiXvNTb+plF1GBhd81TG13wQW72siS6pPb0pePtiPefnIVUFCtPnHYY6Nrtx72\nLAr5OJqrNIQnLSCNiHz4Ylx9nz8CTNU6OUM9/WNSz6NYuKZfhrN6uXPYJ6jcFdrz\nEgaH4W7zORVk7XOzLfB/ig==\n-----END PRIVATE KEY-----\n",
  "client_email": "firebase-adminsdk-ipoak@cht-iot-b0dd1.iam.gserviceaccount.com",
  "client_id": "107746037541488993461",
  "auth_uri": "https://accounts.google.com/o/oauth2/auth",
  "token_uri": "https://oauth2.googleapis.com/token",
  "auth_provider_x509_cert_url": "https://www.googleapis.com/oauth2/v1/certs",
  "client_x509_cert_url": "https://www.googleapis.com/robot/v1/metadata/x509/firebase-adminsdk-ipoak%40cht-iot-b0dd1.iam.gserviceaccount.com"
}
